{
  "name" : "C - You Are Given a WASD-string...",
  "testType" : "SINGLE",
  "input" : {
    "type" : "STANDARD"
  },
  "output" : {
    "type" : "STANDARD"
  },
  "tests" : [ {
    "input" : "3\nDSAWWAW\nD\nWA\n",
    "output" : "\n8\n2\n4\n",
    "index" : 0,
    "active" : true
  }, {
    "input" : "1\nDSAWWAW\n",
    "output" : "8\n",
    "index" : 1,
    "active" : true
  }, {
    "input" : "25\nW\nA\nS\nD\nWW\nWA\nWS\nWD\nAW\nAA\nAS\nAD\nSW\nSA\nSS\nSD\nDW\nDA\nDS\nDD\nWWW\nWWA\nWWS\nWWD\nWAW\n",
    "output" : "2\n2\n2\n2\n2\n4\n2\n4\n4\n2\n4\n2\n2\n4\n2\n4\n4\n2\n4\n2\n3\n4\n2\n4\n4\n",
    "index" : 2,
    "active" : true
  }, {
    "input" : "1\nWWS",
    "output" : "2",
    "index" : 3,
    "active" : true
  } ],
  "location" : "main/bg.svilen.codeforces",
  "vmArgs" : "-Xmx256M",
  "mainClass" : "Main",
  "taskClass" : "bg.svilen.codeforces.TaskC",
  "checkerClass" : "net.egork.chelper.checkers.TokenChecker",
  "checkerParameters" : "",
  "testClasses" : [ ],
  "date" : "2019.09.08",
  "contestName" : "Educational Codeforces Round 70 (Rated for Div. 2)",
  "truncate" : true,
  "inputClass" : "net.egork.utils.io.InputReader",
  "outputClass" : "java.io.PrintWriter",
  "includeLocale" : false,
  "failOnOverflow" : false,
  "interactive" : false
}